{
    "group": [
        {
            "groupId": 1,
            "groupName": "group1"
        },
        {
            "groupId": 2,
            "groupName": "group2"
        },
        {
            "groupId": 3,
            "groupName": "group3"
        },
        {
            "groupId": 4,
            "groupName": "group4"
        },
        {
            "groupId": 5,
            "groupName": "group5"
        }
    ]
}