[
    {
        "userId": 1,
        "userName": "user1"
    },
    {
        "userId": 2,
        "userName": "user2"
    },
    {
        "userId": 3,
        "userName": "user3"
    },
    {
        "userId": 4,
        "userName": "user4"
    },
    {
        "userId": 5,
        "userName": "user5"
    }
]