{
    "chuyenXe": [
        {
            "maCX": "001",
            "tenTx": "nguyen van a",
            "soX": "",
            "doanhThu": 1500,
            "soKm": 40,
            "soTuyen": "112",
            "isNoiThanh": true 
        },
        {
            "maCX": "002",
            "tenTx": "nguyen van b",
            "soX": "",
            "doanhThu": 100,
            "noiDen": "",
            "soNgay": 2,
            "isNoiThanh": false   
        },
        {
            "maCX": "003",
            "tenTx": "nguyen van c",
            "soX": "",
            "doanhThu": 900,
            "soKm": 38,
            "soTuyen": "111",
            "isNoiThanh": true 
        },
        {
            "maCX": "004",
            "tenTx": "nguyen van d",
            "soX": "",
            "doanhThu": 670,
            "soKm": 39,
            "soTuyen": "116",
            "isNoiThanh": true 
        },
        {
            "maCX": "005",
            "tenTx": "nguyen van e",
            "soX": "",
            "doanhThu": 200,
            "noiDen": "",
            "soNgay": 7,
            "isNoiThanh": false
        }
    ]
}